<svg width="60" height="60" viewBox="0 0 60 60" fill="none" xmlns="http://www.w3.org/2000/svg">
<g clip-path="url(#clip0_206_1258)">
<path d="M60 0H0V60H60V0Z" fill="white"/>
<path fill-rule="evenodd" clip-rule="evenodd" d="M47 10H13V50L30 41.4286L47 50V10Z" fill="black"/>
</g>
<defs>
<clipPath id="clip0_206_1258">
<rect width="60" height="60" fill="white"/>
</clipPath>
</defs>
</svg>
